{
	"info": {
		"_postman_id": "0de84864-9fb9-4931-bfb1-9fb58fa058ce",
		"name": "directors",
		"schema": "https://schema.getpostman.com/json/collection/v2.1.0/collection.json"
	},
	"item": [
		{
			"name": "ADD directors",
			"request": {
				"method": "POST",
				"header": [],
				"url": {
					"raw": "http://localhost:4000/api/directors",
					"protocol": "http",
					"host": [
						"localhost"
					],
					"port": "4000",
					"path": [
						"api",
						"directors"
					]
				}
			},
			"response": []
		},
		{
			"name": "UPDATE directors",
			"request": {
				"method": "PUT",
				"header": [],
				"url": {
					"raw": "http://localhost:4000/api/directors/:directorId",
					"protocol": "http",
					"host": [
						"localhost"
					],
					"port": "4000",
					"path": [
						"api",
						"directors",
						":directorId"
					],
					"variable": [
						{
							"key": "directorId",
							"value": ""
						}
					]
				}
			},
			"response": []
		},
		{
			"name": "DELETE directors",
			"request": {
				"method": "DELETE",
				"header": [],
				"url": {
					"raw": "http://localhost:4000/api/directors/:directorId",
					"protocol": "http",
					"host": [
						"localhost"
					],
					"port": "4000",
					"path": [
						"api",
						"directors",
						":directorId"
					],
					"variable": [
						{
							"key": "directorId",
							"value": ""
						}
					]
				}
			},
			"response": []
		},
		{
			"name": "GET all directors",
			"request": {
				"method": "GET",
				"header": [],
				"url": {
					"raw": "http://localhost:4000/api/directors",
					"protocol": "http",
					"host": [
						"localhost"
					],
					"port": "4000",
					"path": [
						"api",
						"directors"
					]
				}
			},
			"response": []
		},
		{
			"name": "GET director by id",
			"request": {
				"method": "GET",
				"header": [],
				"url": {
					"raw": "http://localhost:4000/api/directors/:directorId",
					"protocol": "http",
					"host": [
						"localhost"
					],
					"port": "4000",
					"path": [
						"api",
						"directors",
						":directorId"
					],
					"variable": [
						{
							"key": "directorId",
							"value": ""
						}
					]
				}
			},
			"response": []
		},
		{
			"name": "GET directors by nationality",
			"request": {
				"method": "GET",
				"header": [],
				"url": {
					"raw": "http://localhost:4000/api/directors/directorsask/ask?nationality=\"\"",
					"protocol": "http",
					"host": [
						"localhost"
					],
					"port": "4000",
					"path": [
						"api",
						"directors",
						"directorsask",
						"ask"
					],
					"query": [
						{
							"key": "nationality",
							"value": "\"\""
						}
					]
				}
			},
			"response": []
		}
	]
}