{
	"info": {
		"_postman_id": "9577fc2b-6dac-4a02-bbcb-a1d771ae482b",
		"name": "movies",
		"schema": "https://schema.getpostman.com/json/collection/v2.1.0/collection.json"
	},
	"item": [
		{
			"name": "ADD movies",
			"request": {
				"method": "POST",
				"header": [],
				"url": {
					"raw": "http://localhost:4000/api/movies",
					"protocol": "http",
					"host": [
						"localhost"
					],
					"port": "4000",
					"path": [
						"api",
						"movies"
					]
				}
			},
			"response": []
		},
		{
			"name": "UPDATE movies",
			"request": {
				"method": "PUT",
				"header": [],
				"url": {
					"raw": "http://localhost:4000/api/movies/:movieId",
					"protocol": "http",
					"host": [
						"localhost"
					],
					"port": "4000",
					"path": [
						"api",
						"movies",
						":movieId"
					],
					"variable": [
						{
							"key": "movieId",
							"value": ""
						}
					]
				}
			},
			"response": []
		},
		{
			"name": "DELETE movies",
			"request": {
				"method": "DELETE",
				"header": [],
				"url": {
					"raw": "http://localhost:4000/api/movies/:movieId",
					"protocol": "http",
					"host": [
						"localhost"
					],
					"port": "4000",
					"path": [
						"api",
						"movies",
						":movieId"
					],
					"variable": [
						{
							"key": "movieId",
							"value": ""
						}
					]
				}
			},
			"response": []
		},
		{
			"name": "GET all movies",
			"request": {
				"method": "GET",
				"header": [],
				"url": {
					"raw": "http://localhost:4000/api/movies",
					"protocol": "http",
					"host": [
						"localhost"
					],
					"port": "4000",
					"path": [
						"api",
						"movies"
					]
				}
			},
			"response": []
		},
		{
			"name": "GET movie by id",
			"request": {
				"method": "GET",
				"header": [],
				"url": {
					"raw": "http://localhost:4000/api/movies/:movieId",
					"protocol": "http",
					"host": [
						"localhost"
					],
					"port": "4000",
					"path": [
						"api",
						"movies",
						":movieId"
					],
					"variable": [
						{
							"key": "movieId",
							"value": ""
						}
					]
				}
			},
			"response": []
		},
		{
			"name": "GET specific movies sorted by year and filtered by country",
			"request": {
				"method": "GET",
				"header": [],
				"url": {
					"raw": "http://localhost:4000/api/movies/movieask/asking?country=\"\"",
					"protocol": "http",
					"host": [
						"localhost"
					],
					"port": "4000",
					"path": [
						"api",
						"movies",
						"movieask",
						"asking"
					],
					"query": [
						{
							"key": "country",
							"value": "\"\""
						}
					]
				}
			},
			"response": []
		}
	]
}